DC 0 12 CD A 8C CD A 8C CE 0 1 8B 6 CD A 28 CD 37 28 CD 11 30 7B 40 CD 1 78 CD 31 7E CD 35 D4 7B C CE 5F C4 36 0 1 1 34 3 0 0 0 0 0 0 0 0 0 0 0 0 0 0 0 0 0 0 0 16
FF  FF  FF  FF  FF  8C  CD  0A  
8C  CE  00  01  8B  06  CD  0A  
28  CD  37  28  CD  11  30  7B  
40  CD  01  78  CD  31  7E  CD  
64  20  69  6E  20  74  6F  20  
66  69  6C  6C  20  61  20  31  
32  38  20  6B  20  62  75  66  
66  65  72  20  74  68  69  73  
